Running on 3rd and Six Doesn’t Lead to First Downs – Matthew's Sports Blog
…
Of those 3,308 total runs on 3rd and six, teams only rushed on that down and distance 21 percent of the time.

Code

third_and_six_play_types |>
  mutate(
    percentage = total / 15661 * 100
  ) |>
  arrange(desc(percentage))

# A tibble: 22 × 3
   play_type                  total percentage
   <chr>                      <int>      <dbl>
 1 Pass Reception              4676     29.9  
 2 Pass Incompletion           3866     24.7  
 3 Rush                        3173     20.3  
 4 Penalty                     1068      6.82 
 5 Timeout                      929      5.93 
 6 Sack                         800      5.11 
 7 Passing Touchdown            496      3.17 
 8 Interception Return          257      1.64 
 9 Rushing Touchdown            135      0.862
10 Fumble Recovery (Opponent)   101      0.645
# ℹ 12 more rows
…
Navy, Army and Air Force led Division I in run plays on 3rd and six, which was expected from the service academies. Georgia Southern and Ole Miss rounded out the top five as the most run-heavy teams on that specific down and distance. Maryland, from 2019-2024, has only ran 17 run plays on 3rd and six.

Code

third_and_six_rushes |>
  group_by(pos_team) |>
  summarise(
    total = n()
  ) |>
  arrange(desc(total))

# A tibble: 280 × 2
   pos_team         total
   <chr>            <int>
 1 Navy                59
 2 Army                51
 3 Air Force           42
 4 Georgia Southern    34
 5 Ole Miss            31
 6 Kent State          30
 7 New Mexico          30
 8 Baylor              29
 9 Louisiana           29
10 Georgia Tech        28
# ℹ 270 more rows
…
